Get BEDs associated with BEDset — bb_beds_in_bedset • bedbaser
…
bedset_id
integer() BEDset record identifier

    Value

    list() BED record identifiers

    Examples

api <- BEDbase()
#> Warning: incomplete final line found on '/tmp/RtmpJmN7Sc/file91b3880bdc6'
ex_bedset <- bb_example(api, "bedset")
bb_beds_in_bedset(api, ex_bedset$id)
#> # A tibble: 80 × 8
#>    name  genome_alias bed_type bed_format id    submission_date last_update_date
#>    <chr> <chr>        <chr>    <chr>      <chr> <chr>           <chr>           
#>  1 mm39… mm39         bed3+8   bed        43bd… 2024-04-09T12:… 2024-04-09T12:0…
#>  2 mm39… mm39         bed3+8   bed        7d73… 2024-04-09T12:… 2024-04-09T12:0…
#>  3 mm39… mm39         bed3+8   bed        18ff… 2024-04-09T12:… 2024-04-09T12:0…
#>  4 mm10… mm10         bed3+8   bed        6bc6… 2024-04-09T12:… 2024-04-09T12:0…
#>  5 mm10… mm10         bed3+8   bed        027d… 2024-04-09T12:… 2024-04-09T12:0…
#>  6 mm10… mm10         bed3+8   bed        7e82… 2024-04-09T12:… 2024-04-09T12:0…
#>  7 mm10… mm10         bed3+8   bed        a09c… 2024-04-09T12:… 2024-04-09T12:0…
#>  8 hg19… hg19         bed3+4   bed        3d6d… 2024-04-09T12:… 2024-04-09T12:0…
#>  9 mm10… mm10         bed3+8   bed        8d84… 2024-04-09T12:… 2024-04-09T12:0…
#> 10 mm9.… mm9          bed3+8   bed        4776… 2024-04-09T12:… 2024-04-09T12:0…
#> # ℹ 70 more rows
#> # ℹ 1 more variable: is_universe <lgl>
…
