List BEDs — bb_list_beds • bedbaser
…
limit
integer() (default 1000) maximum records

offset
integer() (default 0) page token of records

    Value

    tibble() of BED records

    Examples

api <- bedbaser()
bb_list_beds(api)
#> # A tibble: 1,000 × 11
#>    name         genome_alias genome_digest bed_type bed_format id    description
#>    <chr>        <chr>        <chr>         <chr>    <chr>      <chr> <lgl>      
#>  1 Human_LnCaP… hg19         baa91c8f6e27… bed4+1   bed        04c4… NA         
#>  2 PM_137_NPC_… hg38         2230c535660f… bed6+4   narrowpeak bbad… NA         
#>  3 FXS_421_NPC… hg38         2230c535660f… bed4+6   bed        0dcd… NA         
#>  4 NL_25_NPC_C… hg38         2230c535660f… bed6+4   narrowpeak db69… NA         
#>  5 NL_18_NPC_C… hg38         2230c535660f… bed4+6   bed        5a43… NA         
#>  6 FXS_426_NPC… hg38         2230c535660f… bed4+6   bed        6a62… NA         
#>  7 FXS_470_NPC… hg38         2230c535660f… bed6+4   narrowpeak 7126… NA         
#>  8 PM_137_iPSC… hg38         2230c535660f… bed4+6   bed        39b6… NA         
#>  9 NL_18_iPSC_… hg38         2230c535660f… bed6+4   narrowpeak e216… NA         
#> 10 FXS_425_iPS… hg38         2230c535660f… bed3+0   bed        60b8… NA         
#> # ℹ 990 more rows
#> # ℹ 4 more variables: submission_date <chr>, last_update_date <chr>,
#> #   is_universe <lgl>, license_id <chr>
…
