bedbaser • bedbaser
…
bedbaser includes convenience functions prefixed with bb_ to
facilitate finding BED files, exploring their metadata, download files,
and creating GRanges objects.

Find a BED file or BEDset

Use bb_list_beds() and bb_list_bedsets() to
browse available resources in BEDbase. Both functions display the id and
names of BED files and BEDsets. An id can be used to access a specific
resource.

bb_list_beds(api)

## # A tibble: 1,000 × 11
##    name         genome_alias genome_digest bed_type bed_format id    description
##    <chr>        <chr>        <chr>         <chr>    <chr>      <chr> <lgl>      
##  1 Human_LnCaP… hg19         baa91c8f6e27… bed4+1   bed        04c4… NA         
##  2 PM_137_NPC_… hg38         2230c535660f… bed6+4   narrowpeak bbad… NA         
##  3 FXS_421_NPC… hg38         2230c535660f… bed4+6   bed        0dcd… NA         
##  4 NL_25_NPC_C… hg38         2230c535660f… bed6+4   narrowpeak db69… NA         
##  5 NL_18_NPC_C… hg38         2230c535660f… bed4+6   bed        5a43… NA         
##  6 FXS_426_NPC… hg38         2230c535660f… bed4+6   bed        6a62… NA         
##  7 FXS_470_NPC… hg38         2230c535660f… bed6+4   narrowpeak 7126… NA         
##  8 PM_137_iPSC… hg38         2230c535660f… bed4+6   bed        39b6… NA         
##  9 NL_18_iPSC_… hg38         2230c535660f… bed6+4   narrowpeak e216… NA         
## 10 FXS_425_iPS… hg38         2230c535660f… bed3+0   bed        60b8… NA         
## # ℹ 990 more rows
## # ℹ 4 more variables: submission_date <chr>, last_update_date <chr>,
## #   is_universe <lgl>, license_id <chr>

bb_list_bedsets(api)

## # A tibble: 1,707 × 5
##    id            name          md5sum                        description bed_ids
##    <chr>         <chr>         <chr>                         <chr>       <chr>  
##  1 excluderanges Excluderanges bf618e9e98842467fad39c7f86a9… Genomic co… e86829…
##  2 excluderanges Excluderanges bf618e9e98842467fad39c7f86a9… Genomic co… eef2eb…
##  3 excluderanges Excluderanges bf618e9e98842467fad39c7f86a9… Genomic co… ba5351…
##  4 excluderanges Excluderanges bf618e9e98842467fad39c7f86a9… Genomic co… 6bc6da…
##  5 excluderanges Excluderanges bf618e9e98842467fad39c7f86a9… Genomic co… a09cb0…
##  6 excluderanges Excluderanges bf618e9e98842467fad39c7f86a9… Genomic co… 608827…
##  7 excluderanges Excluderanges bf618e9e98842467fad39c7f86a9… Genomic co… 664c47…
##  8 excluderanges Excluderanges bf618e9e98842467fad39c7f86a9… Genomic co… 2723d1…
##  9 excluderanges Excluderanges bf618e9e98842467fad39c7f86a9… Genomic co… 56ce79…
## 10 excluderanges Excluderanges bf618e9e98842467fad39c7f86a9… Genomic co… 80d2b2…
## # ℹ 1,697 more rows
…
Show BED files in BEDset

Use bb_beds_in_bedset() to display the id of BEDs in a
BEDset.

bb_beds_in_bedset(api, "excluderanges")

## # A tibble: 80 × 8
##    name  genome_alias bed_type bed_format id    submission_date last_update_date
##    <chr> <chr>        <chr>    <chr>      <chr> <chr>           <chr>           
##  1 mm39… mm39         bed3+8   bed        43bd… 2024-04-09T12:… 2024-04-09T12:0…
##  2 mm39… mm39         bed3+8   bed        7d73… 2024-04-09T12:… 2024-04-09T12:0…
##  3 mm39… mm39         bed3+8   bed        18ff… 2024-04-09T12:… 2024-04-09T12:0…
##  4 mm10… mm10         bed3+8   bed        6bc6… 2024-04-09T12:… 2024-04-09T12:0…
##  5 mm10… mm10         bed3+8   bed        027d… 2024-04-09T12:… 2024-04-09T12:0…
##  6 mm10… mm10         bed3+8   bed        7e82… 2024-04-09T12:… 2024-04-09T12:0…
##  7 mm10… mm10         bed3+8   bed        a09c… 2024-04-09T12:… 2024-04-09T12:0…
##  8 hg19… hg19         bed3+4   bed        3d6d… 2024-04-09T12:… 2024-04-09T12:0…
##  9 mm10… mm10         bed3+8   bed        8d84… 2024-04-09T12:… 2024-04-09T12:0…
## 10 mm9.… mm9          bed3+8   bed        4776… 2024-04-09T12:… 2024-04-09T12:0…
## # ℹ 70 more rows
## # ℹ 1 more variable: is_universe <lgl>
…
